"x","y","z"
36.4306,152.195,66.2214
36.4306,152.195,71.2214
36.4306,152.195,76.2214
36.4306,157.195,66.2214
36.4306,157.195,71.2214
36.4306,162.195,71.2214
36.4306,167.195,71.2214
36.4306,167.195,76.2214
41.4306,142.195,66.2214
41.4306,147.195,66.2214
41.4306,147.195,71.2214
41.4306,147.195,76.2214
41.4306,152.195,66.2214
41.4306,152.195,71.2214
41.4306,152.195,76.2214
41.4306,157.195,61.2214
41.4306,157.195,66.2214
41.4306,157.195,71.2214
41.4306,157.195,76.2214
41.4306,162.195,66.2214
41.4306,162.195,71.2214
41.4306,162.195,76.2214
41.4306,167.195,66.2214
41.4306,167.195,71.2214
41.4306,167.195,76.2214
41.4306,172.195,66.2214
41.4306,172.195,71.2214
41.4306,172.195,76.2214
41.4306,172.195,81.2214
46.4306,142.195,66.2214
46.4306,142.195,71.2214
46.4306,142.195,76.2214
46.4306,147.195,61.2214
46.4306,147.195,66.2214
46.4306,147.195,71.2214
46.4306,147.195,76.2214
46.4306,147.195,81.2214
46.4306,152.195,56.2214
46.4306,152.195,61.2214
46.4306,152.195,66.2214
46.4306,152.195,71.2214
46.4306,152.195,76.2214
46.4306,152.195,81.2214
46.4306,157.195,56.2214
46.4306,157.195,61.2214
46.4306,157.195,66.2214
46.4306,157.195,71.2214
46.4306,157.195,76.2214
46.4306,162.195,61.2214
46.4306,162.195,66.2214
46.4306,162.195,71.2214
46.4306,162.195,76.2214
46.4306,162.195,101.221
46.4306,167.195,61.2214
46.4306,167.195,66.2214
46.4306,167.195,71.2214
46.4306,167.195,76.2214
46.4306,172.195,66.2214
46.4306,172.195,71.2214
46.4306,172.195,76.2214
46.4306,172.195,81.2214
46.4306,177.195,71.2214
46.4306,177.195,76.2214
51.4306,137.195,66.2214
51.4306,137.195,71.2214
51.4306,137.195,76.2214
51.4306,142.195,66.2214
51.4306,142.195,71.2214
51.4306,142.195,76.2214
51.4306,147.195,66.2214
51.4306,147.195,71.2214
51.4306,147.195,76.2214
51.4306,147.195,81.2214
51.4306,147.195,86.2214
51.4306,147.195,101.221
51.4306,152.195,61.2214
51.4306,152.195,66.2214
51.4306,152.195,71.2214
51.4306,152.195,76.2214
51.4306,152.195,81.2214
51.4306,152.195,86.2214
51.4306,152.195,91.2214
51.4306,152.195,96.2214
51.4306,152.195,101.221
51.4306,157.195,56.2214
51.4306,157.195,61.2214
51.4306,157.195,66.2214
51.4306,157.195,71.2214
51.4306,157.195,76.2214
51.4306,157.195,81.2214
51.4306,157.195,101.221
51.4306,157.195,106.221
51.4306,162.195,56.2214
51.4306,162.195,61.2214
51.4306,162.195,66.2214
51.4306,162.195,71.2214
51.4306,162.195,76.2214
51.4306,162.195,81.2214
51.4306,162.195,86.2214
51.4306,162.195,91.2214
51.4306,162.195,96.2214
51.4306,162.195,101.221
51.4306,167.195,56.2214
51.4306,167.195,61.2214
51.4306,167.195,66.2214
51.4306,167.195,71.2214
51.4306,167.195,76.2214
51.4306,167.195,81.2214
51.4306,167.195,91.2214
51.4306,167.195,101.221
51.4306,172.195,61.2214
51.4306,172.195,66.2214
51.4306,172.195,71.2214
51.4306,172.195,76.2214
51.4306,177.195,61.2214
51.4306,177.195,66.2214
51.4306,177.195,71.2214
51.4306,177.195,76.2214
51.4306,182.195,71.2214
56.4306,137.195,66.2214
56.4306,137.195,71.2214
56.4306,137.195,76.2214
56.4306,142.195,66.2214
56.4306,142.195,71.2214
56.4306,142.195,76.2214
56.4306,147.195,66.2214
56.4306,147.195,71.2214
56.4306,147.195,76.2214
56.4306,147.195,81.2214
56.4306,147.195,101.221
56.4306,152.195,61.2214
56.4306,152.195,66.2214
56.4306,152.195,71.2214
56.4306,152.195,76.2214
56.4306,152.195,81.2214
56.4306,152.195,86.2214
56.4306,152.195,91.2214
56.4306,152.195,96.2214
56.4306,152.195,101.221
56.4306,157.195,56.2214
56.4306,157.195,61.2214
56.4306,157.195,66.2214
56.4306,157.195,71.2214
56.4306,157.195,76.2214
56.4306,157.195,81.2214
56.4306,157.195,86.2214
56.4306,157.195,91.2214
56.4306,157.195,96.2214
56.4306,157.195,101.221
56.4306,162.195,56.2214
56.4306,162.195,61.2214
56.4306,162.195,66.2214
56.4306,162.195,71.2214
56.4306,162.195,76.2214
56.4306,162.195,81.2214
56.4306,162.195,86.2214
56.4306,162.195,91.2214
56.4306,162.195,96.2214
56.4306,162.195,101.221
56.4306,167.195,56.2214
56.4306,167.195,61.2214
56.4306,167.195,66.2214
56.4306,167.195,71.2214
56.4306,167.195,76.2214
56.4306,167.195,81.2214
56.4306,172.195,61.2214
56.4306,172.195,66.2214
56.4306,172.195,71.2214
56.4306,177.195,61.2214
56.4306,177.195,66.2214
56.4306,177.195,71.2214
61.4306,137.195,66.2214
61.4306,137.195,71.2214
61.4306,142.195,66.2214
61.4306,142.195,71.2214
61.4306,142.195,76.2214
61.4306,147.195,66.2214
61.4306,147.195,71.2214
61.4306,147.195,76.2214
61.4306,147.195,81.2214
61.4306,147.195,91.2214
61.4306,147.195,101.221
61.4306,147.195,106.221
61.4306,152.195,61.2214
61.4306,152.195,66.2214
61.4306,152.195,71.2214
61.4306,152.195,76.2214
61.4306,152.195,81.2214
61.4306,152.195,86.2214
61.4306,152.195,91.2214
61.4306,152.195,96.2214
61.4306,152.195,101.221
61.4306,152.195,106.221
61.4306,157.195,61.2214
61.4306,157.195,66.2214
61.4306,157.195,71.2214
61.4306,157.195,76.2214
61.4306,157.195,81.2214
61.4306,157.195,86.2214
61.4306,157.195,91.2214
61.4306,157.195,96.2214
61.4306,157.195,101.221
61.4306,162.195,56.2214
61.4306,162.195,61.2214
61.4306,162.195,66.2214
61.4306,162.195,71.2214
61.4306,162.195,76.2214
61.4306,162.195,81.2214
61.4306,162.195,86.2214
61.4306,162.195,91.2214
61.4306,162.195,96.2214
61.4306,162.195,101.221
61.4306,167.195,56.2214
61.4306,167.195,61.2214
61.4306,167.195,66.2214
61.4306,167.195,71.2214
61.4306,167.195,76.2214
61.4306,167.195,81.2214
61.4306,167.195,91.2214
61.4306,167.195,101.221
61.4306,172.195,61.2214
61.4306,172.195,66.2214
61.4306,172.195,71.2214
61.4306,172.195,76.2214
61.4306,172.195,81.2214
61.4306,177.195,66.2214
61.4306,177.195,71.2214
66.4306,137.195,66.2214
66.4306,142.195,66.2214
66.4306,142.195,71.2214
66.4306,142.195,76.2214
66.4306,147.195,66.2214
66.4306,147.195,71.2214
66.4306,147.195,76.2214
66.4306,147.195,81.2214
66.4306,147.195,101.221
66.4306,152.195,61.2214
66.4306,152.195,66.2214
66.4306,152.195,71.2214
66.4306,152.195,76.2214
66.4306,152.195,91.2214
66.4306,152.195,101.221
66.4306,157.195,61.2214
66.4306,157.195,66.2214
66.4306,157.195,71.2214
66.4306,157.195,76.2214
66.4306,157.195,81.2214
66.4306,157.195,86.2214
66.4306,157.195,91.2214
66.4306,157.195,96.2214
66.4306,157.195,101.221
66.4306,162.195,56.2214
66.4306,162.195,61.2214
66.4306,162.195,66.2214
66.4306,162.195,71.2214
66.4306,162.195,76.2214
66.4306,162.195,81.2214
66.4306,162.195,86.2214
66.4306,162.195,96.2214
66.4306,162.195,101.221
66.4306,167.195,56.2214
66.4306,167.195,61.2214
66.4306,167.195,66.2214
66.4306,167.195,71.2214
66.4306,167.195,76.2214
66.4306,167.195,96.2214
66.4306,167.195,101.221
66.4306,172.195,61.2214
66.4306,172.195,66.2214
66.4306,172.195,71.2214
66.4306,172.195,76.2214
66.4306,177.195,66.2214
66.4306,177.195,71.2214
66.4306,177.195,76.2214
71.4306,147.195,61.2214
71.4306,147.195,66.2214
71.4306,147.195,71.2214
71.4306,147.195,101.221
71.4306,152.195,61.2214
71.4306,152.195,66.2214
71.4306,152.195,71.2214
71.4306,157.195,61.2214
71.4306,157.195,66.2214
71.4306,157.195,71.2214
71.4306,157.195,101.221
71.4306,162.195,61.2214
71.4306,162.195,66.2214
71.4306,162.195,71.2214
71.4306,162.195,76.2214
71.4306,162.195,101.221
71.4306,167.195,56.2214
71.4306,167.195,61.2214
71.4306,167.195,66.2214
71.4306,167.195,71.2214
71.4306,167.195,76.2214
71.4306,172.195,61.2214
71.4306,172.195,66.2214
71.4306,172.195,71.2214
71.4306,172.195,76.2214
71.4306,177.195,66.2214
76.4306,157.195,56.2214
76.4306,157.195,61.2214
76.4306,157.195,66.2214
76.4306,162.195,61.2214
76.4306,162.195,66.2214
76.4306,167.195,66.2214
76.4306,167.195,71.2214
81.4306,157.195,66.2214
