"Points:0","Points:1","Points:2"
90,67,45
90,87,45
90,55,55
90,95,55
90,65,65
90,95,65
90,62.5,75
90,92.5,75
90,62.5,85
90,92.5,85
80,76,55
80,96,55
80,74,65
80,94,65
80,62.5,75
80,92.5,75
80,62.5,85
80,92.5,85
70,81,65
70,91,65
70,62.5,75
70,92.5,75
70,60,85
70,80,85
100,55,45
100,95,45
100,55,55
100,95,55
100,55,65
100,95,65
100,62.5,75
100,92.5,75
100,72.5,85
100,92.5,85
110,54,45
110,84,45
110,55,55
110,95,55
110,55,65
110,95,65
110,75,75
110,85,75
