156517
154964
247983
83853
65422
299913
273907
91583
274992
2105
193704
297470
351508
202041
306266
178603
300084
207948
27869
349168
41608
307638
171561
331791
182185
100679
212896
178183
178183
169719
300685
166806
299617
125249
76082
36221
348325
94931
13155
321058
63874
351510
178933
364197
364199
329669
48241
351511
117618
354934
217364
56760
170954
290878
99514
280036
150508
178707
3693
313345
27968
61764
30282
25362
335224
26455
260584
281408
135325
9121
358893
233767
85880
123211
305001
184589
379690
42790
267189
267185
189926
244076
163041
94548
69555
315083
300357
299603
237351
141394
335802
84412
48235
178938
361160
33248
362161
124116
192275
70740
273836
300312
360554
379725
39549
226003
247419
252350
130604
227293
36711
244750
311916
335124
358557
20655
164258
381004
380993
173086
347885
163364
23101
264522
263312
206217
93109
3286
90948
322812
322805
211130
112565
25752
183211
135236
168451
270306
124918
311537
27908
234031
83280
165174
346973
100591
127706
383887
110365
191335
28166
22299
96723
53727
225735
4845
272950
37850
282260
366968
297697
278257
277777
213435
94178
86128
360552
283260
13202
286676
366972
280832
107049
250537
25448
42434
157448
313435
310289
123809
173547
366980
317202
365795
239477
349220
69084
158946
234274
367169
376546
304210
36875
144932
50250
45820
378458
342835
105376
159148
380992
111140
208900
382032
358221
187128
92911
273967
363279
363290
41200
273589
107796
166811
184897
273642
226521
309773
279629
64948
18620
362002
34587
110067
62735
88980
36386
80349
204035
216286
57946
344623
264668
140237
96501
296525
332053
32106
184434
174418
151554
297713
330138
34817
216389
308002
224499
155597
104646
156144
272944
186112
366979
252795
223718
133924
321116
239219
6058
223351
15427
324855
142403
366964
40461
164691
337144
63382
365599
132430
73436
334267
310312
36448
188661
35316
132543
35184
365592
143731
374728
6182
354830
380192
304211
245806
151691
360203
258162
140749
141563
107407
271963
108250
360172
360194
80367
232316
383021
352118
363297
242841
20117
255542
167774
68985
213135
303174
83714
363283
305414
61216
191909
244012
169976
126027
141283
6837
368165
368173
43116
295562
73838
74584
292482
218906
104802
203579
354241
197714
122902
197452
15453
19570
64820
371270
71012
369299
210041
232731
337462
357477
12978
197452
24893
322849
328053
215609
138757
365308
246178
175821
271712
291893
251315
280072
267188
258705
357365
69887
288432
326096
77655
83837
219752
359821
209656
313432
140721
45837
355063
285790
143553
292369
103063
302992
266041
107328
8171
311931
41020
366413
91816
374707
161714
190726
353887
349073
297173
129835
34491
337313
367466
363474
161709
355419
49082
83866
360109
262881
81527
211051
341224
329647
330125
184313
364477
361853
226552
174026
336220
364471
364480
305539
217403
100580
368246
358953
356930
38795
219662
94042
202883
92656
66207
51518
314139
368249
351301
234799
368168
235316
145913
167243
188179
210659
317305
279450
135766
12781
120491
122902
131566
361991
19570
203365
371261
302827
369300
104804
45103
133234
357314
354087
279988
43981
197218
219076
160722
365304
14895
199693
253766
359814
359773
12880
159147
159147
248757
58426
282444
349836
251640
9625
241510
359777
359786
39177
365760
360955
360971
61757
348052
14903
223538
60752
26978
46410
346863
225127
121255
247603
42079
173549
367474
294063
369751
189704
350566
8941
47892
274740
255978
34685
249324
230112
369762
329886
92753
180666
288325
232271
293461
392773
59774
64150
891
367225
367225
78228
166999
110332
70419
239633
184808
58075
263611
45448
91971
10680
345176
16260
339675
285108
351300
133289
35408
351586
69024
43021
11650
23004
11411
228667
61050
259506
152519
139124
10795
292764
50076
310870
296205
225192
380947
175631
136648
70994
17570
298901
13856
342275
251216
37783
149529
78416
180360
235854
360989
360991
355764
283677
227978
331093
294005
335275
346226
189175
93699
358937
358917
90447
240390
274668
263798
144245
14743
179216
102773
25650
86704
34951
316867
88921
236633
253559
238560
366150
279970
150003
64315
35964
65853
248262
272968
109657
322754
366147
358536
323938
108502
371968
133272
138831
375227
362233
303708
358535
323048
146979
371976
238648
98524
300707
364870
21532
236098
324992
217590
341344
373985
670
294024
139652
356176
10842
81330
141391
246272
227868
266081
25002
175755
219512
24367
83137
367643
38460
33488
378592
21170
230701
235608
316397
95338
228545
367637
367638
322994
242045
371123
316897
329825
32954
77662
149565
75352
196128
175019
378604
378603
178310
225404
75089
32860
129607
290224
365060
271087
235866
365914
365910
236992
31188
313138
235756
86349
365062
291316
110955
357161
219840
360997
311333
42076
204649
365067
304004
354274
354274
369556
289728
304676
299289
151407
155306
128879
346064
369553
369549
4931
312918
331695
28660
202079
96023
363154
163104
146238
72144
302271
56977
62810
116888
27477
177464
108245
22446
247793
359629
22769
340566
248568
267159
51365
216724
261344
38921
350013
355873
379538
160131
207137
84115
105471
157932
42017
364684
120081
378583
216310
229199
22681
144360
336134
211111
253016
367639
378585
378580
251353
130125
284781
106855
335402
259946
333362
180578
40925
378582
71145
221019
183914
241844
351334
251618
365060
37261
365916
365904
232147
31388
19937
99399
281309
189831
365066
365064
181038
327713
285763
79133
282485
283795
36782
32784
262259
340073
353969
353969
188648
30847
39574
49492
250869
155999
27898
52865
213105
361124
30403
256305
220744
146035
213107
233370
274949
113877
264872
105617
238904
135643
83849
308073
290091
168212
298899
192955
208864
354975
195244
346211
60561
69932
253016
217369
221062
198300
378588
72876
284782
335198
77564
5339
89819
362414
77432
12943
319800
323671
208191
365045
365054
351767
201682
121002
157226
259750
76919
36002
54679
235650
299271
133079
342602
248771
17075
207144
364879
33207
289213
269554
361046
112205
78229
54988
84720
19587
34550
3325
245383
305418
290092
98143