"Points:0","Points:1","Points:2"
80.13925171,38.00944901,79.97546387
80.13925171,48.00944901,79.97546387
85.71112823,38.00844193,79.50901031
85.71112823,48.00844193,79.50901031
76.51577759,48.00532913,88.01340485
76.51577759,58.00532913,88.01340485
94.56040192,38.00261307,84.23950958
94.56040192,48.00261307,84.23950958
79.38552856,49.50027466,100.15355682
79.38552856,59.50027466,100.15355682
86.49806213,49.50175858,97.99528503
86.49806213,59.50175858,97.99528503
96.49421692,49.50217438,97.99351501
96.49421692,59.50217438,97.99351501
