16-Nov-2017 12:38:41	Colin27_tagged_tumor_1_662nm_line_fixed_length_tumor0_662	Cimmino	18	0.900000	1.000000	4000.000000	4015.09	11342.7	11.1673	13.293	97.8421	89.5173	105.666	38.0737	0.0372651	150000000.000000
16-Nov-2017 12:38:41	Colin27_tagged_tumor_1_662nm_line_fixed_length_tumor0_662	dual-simplex	19	0.900000	1.000000	10000.000000	1362.44	2513.94	13.0495	12.2742	97.4393	104.605	97.5676	28.4431	0.421684	150000000.000000
16-Nov-2017 12:40:31	Colin27_tagged_tumor_2_662nm_line_fixed_length_tumor0_662	Cimmino	17	0.900000	1.000000	8000.000000	198008	56925.6	14.2524	13.0264	98.0317	109.306	108.574	29.5932	0.666685	10000000.000000
16-Nov-2017 12:40:31	Colin27_tagged_tumor_2_662nm_line_fixed_length_tumor0_662	interior-point	20	0.900000	1.000000	4000.000000	84353.9	17080.6	10.6525	11.7712	98.2812	81.697	98.1117	21.8777	1	10000000.000000
16-Nov-2017 12:41:23	Colin27_tagged_tumor_3_662nm_line_fixed_length_tumor0_662	Cimmino	6	0.900000	1.000000	10500.000000	185345	48769.5	5.66285	6.89363	98.8032	46.3242	58.5002	0.692883	0.165555	20000000.000000
16-Nov-2017 12:41:23	Colin27_tagged_tumor_3_662nm_line_fixed_length_tumor0_662	dual-simplex	6	0.900000	1.000000	8000.000000	10319.6	3467.08	6.02034	5.99542	98.8328	49.2486	50.8779	9.54001	0.319161	20000000.000000
16-Nov-2017 17:59:22	Colin27_tagged_tumor_4_662nm_line_fixed_length_tumor0_662	Cimmino	3	0.900000	1.000000	30000.000000	909.497	75657.6	16.3032	13.9716	98.1239	133.943	118.512	0.400382	0.360979	4000000000.000000
16-Nov-2017 17:59:22	Colin27_tagged_tumor_4_662nm_line_fixed_length_tumor0_662	interior-point	3	0.900000	1.000000	5000000.000000	172.733	14134	16.1986	14.3262	98.3931	133.084	121.519	12.0021	0.0988962	4000000000.000000
16-Nov-2017 17:59:23	Colin27_tagged_tumor_5_662nm_line_fixed_length_tumor0_662	Cimmino	3	0.900000	1.000000	18000.000000	4.96681e+06	941513	8.27423	8.60179	98.2337	67.967	73.6778	0.147997	0.745817	10000000.000000
16-Nov-2017 17:59:23	Colin27_tagged_tumor_5_662nm_line_fixed_length_tumor0_662	interior-point	3	0.900000	1.000000	500000.000000	2.68445e+06	675623	8.72081	8.78774	98.1649	71.6354	75.2705	5.73926	0.777694	10000000.000000
16-Nov-2017 12:44:19	Colin27_tagged_tumor_6_662nm_line_fixed_length_tumor0_662	Cimmino	6	0.900000	1.000000	120000.000000	36565.1	43711.6	12.0032	11.472	97.6932	97.914	94.5261	22.6632	0.278923	50000000.000000
16-Nov-2017 12:44:19	Colin27_tagged_tumor_6_662nm_line_fixed_length_tumor0_662	dual-simplex	14	0.900000	1.000000	10000.000000	6507.74	4997.83	8.46253	7.69881	97.7694	69.0318	63.4361	17.5581	0.0666361	50000000.000000
16-Nov-2017 12:45:14	Colin27_tagged_tumor_7_662nm_line_fixed_length_tumor0_662	Cimmino	4	0.900000	1.000000	1000000.000000	1762.91	448595	10.5634	10.7662	98.5337	86.8521	90.2209	2.89579	0.131437	5000000000.000000
16-Nov-2017 12:45:14	Colin27_tagged_tumor_7_662nm_line_fixed_length_tumor0_662	dual-simplex	5	0.900000	1.000000	5000000.000000	143.038	14870.7	10.4536	11.0802	98.3062	85.9492	92.8519	14.3427	0.00523937	5000000000.000000
16-Nov-2017 12:46:05	Colin27_tagged_tumor_8_662nm_line_fixed_length_tumor0_662	Cimmino	7	0.900000	1.000000	3000.000000	3.99082e+06	160574	3.48296	6.55232	97.94	28.5097	55.0997	0.25039	0.588232	5000000.000000
16-Nov-2017 12:46:05	Colin27_tagged_tumor_8_662nm_line_fixed_length_tumor0_662	dual-simplex	6	0.900000	1.000000	80000.000000	2.75586e+06	112015	3.40006	6.10896	98.1909	27.8311	51.3714	4.24092	0.944941	5000000.000000
16-Nov-2017 17:59:35	Colin27_tagged_tumor_9_662nm_line_fixed_length_tumor0_662	Cimmino	3	0.900000	1.000000	1500000.000000	1.8297e+06	2.86588e+06	11.5848	8.59631	97.618	95.6703	73.6755	10.6597	0.818958	100000000.000000
16-Nov-2017 17:59:35	Colin27_tagged_tumor_9_662nm_line_fixed_length_tumor0_662	interior-point	4	0.900000	1.000000	1500000.000000	61889.1	41843.6	4.62972	4.61026	97.8992	38.2335	39.5127	8.25957	0.015844	100000000.000000
